{
  "project_info": {
    "project_number": "1019178046442",
    "project_id": "ivanapps-4cf96",
    "storage_bucket": "ivanapps-4cf96.appspot.com"
  },
  "client": [
    {
      "client_info": {
        "mobilesdk_app_id": "1:1019178046442:android:7360e4071dbc45a6995893",
        "android_client_info": {
          "package_name": "com.example.healthadviser"
        }
      },
      "oauth_client": [
        {
          "client_id": "1019178046442-77kasvekln8p1c0u8uqha6lskg5m0vai.apps.googleusercontent.com",
          "client_type": 3
        }
      ],
      "api_key": [
        {
          "current_key": "AIzaSyD943f2P-IgHnbf5HJTwYpfaDelQnDhuGs"
        }
      ],
      "services": {
        "appinvite_service": {
          "other_platform_oauth_client": [
            {
              "client_id": "1019178046442-77kasvekln8p1c0u8uqha6lskg5m0vai.apps.googleusercontent.com",
              "client_type": 3
            }
          ]
        }
      }
    },
    {
      "client_info": {
        "mobilesdk_app_id": "1:1019178046442:android:cc5c40efbbf057e6995893",
        "android_client_info": {
          "package_name": "com.example.memorizeapp"
        }
      },
      "oauth_client": [
        {
          "client_id": "1019178046442-77kasvekln8p1c0u8uqha6lskg5m0vai.apps.googleusercontent.com",
          "client_type": 3
        }
      ],
      "api_key": [
        {
          "current_key": "AIzaSyD943f2P-IgHnbf5HJTwYpfaDelQnDhuGs"
        }
      ],
      "services": {
        "appinvite_service": {
          "other_platform_oauth_client": [
            {
              "client_id": "1019178046442-77kasvekln8p1c0u8uqha6lskg5m0vai.apps.googleusercontent.com",
              "client_type": 3
            }
          ]
        }
      }
    },
    {
      "client_info": {
        "mobilesdk_app_id": "1:1019178046442:android:22a13471595ee00e995893",
        "android_client_info": {
          "package_name": "com.example.minesweeperapp"
        }
      },
      "oauth_client": [
        {
          "client_id": "1019178046442-77kasvekln8p1c0u8uqha6lskg5m0vai.apps.googleusercontent.com",
          "client_type": 3
        }
      ],
      "api_key": [
        {
          "current_key": "AIzaSyD943f2P-IgHnbf5HJTwYpfaDelQnDhuGs"
        }
      ],
      "services": {
        "appinvite_service": {
          "other_platform_oauth_client": [
            {
              "client_id": "1019178046442-77kasvekln8p1c0u8uqha6lskg5m0vai.apps.googleusercontent.com",
              "client_type": 3
            }
          ]
        }
      }
    },
    {
      "client_info": {
        "mobilesdk_app_id": "1:1019178046442:android:d44f7c78a1ccc2ce995893",
        "android_client_info": {
          "package_name": "com.example.myapplication"
        }
      },
      "oauth_client": [
        {
          "client_id": "1019178046442-77kasvekln8p1c0u8uqha6lskg5m0vai.apps.googleusercontent.com",
          "client_type": 3
        }
      ],
      "api_key": [
        {
          "current_key": "AIzaSyD943f2P-IgHnbf5HJTwYpfaDelQnDhuGs"
        }
      ],
      "services": {
        "appinvite_service": {
          "other_platform_oauth_client": [
            {
              "client_id": "1019178046442-77kasvekln8p1c0u8uqha6lskg5m0vai.apps.googleusercontent.com",
              "client_type": 3
            }
          ]
        }
      }
    },
    {
      "client_info": {
        "mobilesdk_app_id": "1:1019178046442:android:8af91bc21de6124d995893",
        "android_client_info": {
          "package_name": "com.example.slotsapp"
        }
      },
      "oauth_client": [
        {
          "client_id": "1019178046442-77kasvekln8p1c0u8uqha6lskg5m0vai.apps.googleusercontent.com",
          "client_type": 3
        }
      ],
      "api_key": [
        {
          "current_key": "AIzaSyD943f2P-IgHnbf5HJTwYpfaDelQnDhuGs"
        }
      ],
      "services": {
        "appinvite_service": {
          "other_platform_oauth_client": [
            {
              "client_id": "1019178046442-77kasvekln8p1c0u8uqha6lskg5m0vai.apps.googleusercontent.com",
              "client_type": 3
            }
          ]
        }
      }
    },
    {
      "client_info": {
        "mobilesdk_app_id": "1:1019178046442:android:185225ecc12816b7995893",
        "android_client_info": {
          "package_name": "com.example.snake"
        }
      },
      "oauth_client": [
        {
          "client_id": "1019178046442-77kasvekln8p1c0u8uqha6lskg5m0vai.apps.googleusercontent.com",
          "client_type": 3
        }
      ],
      "api_key": [
        {
          "current_key": "AIzaSyD943f2P-IgHnbf5HJTwYpfaDelQnDhuGs"
        }
      ],
      "services": {
        "appinvite_service": {
          "other_platform_oauth_client": [
            {
              "client_id": "1019178046442-77kasvekln8p1c0u8uqha6lskg5m0vai.apps.googleusercontent.com",
              "client_type": 3
            }
          ]
        }
      }
    },
    {
      "client_info": {
        "mobilesdk_app_id": "1:1019178046442:android:4f681d19a79cffa2995893",
        "android_client_info": {
          "package_name": "com.example.spaceflighter"
        }
      },
      "oauth_client": [
        {
          "client_id": "1019178046442-77kasvekln8p1c0u8uqha6lskg5m0vai.apps.googleusercontent.com",
          "client_type": 3
        }
      ],
      "api_key": [
        {
          "current_key": "AIzaSyD943f2P-IgHnbf5HJTwYpfaDelQnDhuGs"
        }
      ],
      "services": {
        "appinvite_service": {
          "other_platform_oauth_client": [
            {
              "client_id": "1019178046442-77kasvekln8p1c0u8uqha6lskg5m0vai.apps.googleusercontent.com",
              "client_type": 3
            }
          ]
        }
      }
    },
    {
      "client_info": {
        "mobilesdk_app_id": "1:1019178046442:android:f3d45c2a061d12f3995893",
        "android_client_info": {
          "package_name": "com.example.sportnews"
        }
      },
      "oauth_client": [
        {
          "client_id": "1019178046442-77kasvekln8p1c0u8uqha6lskg5m0vai.apps.googleusercontent.com",
          "client_type": 3
        }
      ],
      "api_key": [
        {
          "current_key": "AIzaSyD943f2P-IgHnbf5HJTwYpfaDelQnDhuGs"
        }
      ],
      "services": {
        "appinvite_service": {
          "other_platform_oauth_client": [
            {
              "client_id": "1019178046442-77kasvekln8p1c0u8uqha6lskg5m0vai.apps.googleusercontent.com",
              "client_type": 3
            }
          ]
        }
      }
    },
    {
      "client_info": {
        "mobilesdk_app_id": "1:1019178046442:android:06f4daee9861a7fe995893",
        "android_client_info": {
          "package_name": "com.example.words"
        }
      },
      "oauth_client": [
        {
          "client_id": "1019178046442-77kasvekln8p1c0u8uqha6lskg5m0vai.apps.googleusercontent.com",
          "client_type": 3
        }
      ],
      "api_key": [
        {
          "current_key": "AIzaSyD943f2P-IgHnbf5HJTwYpfaDelQnDhuGs"
        }
      ],
      "services": {
        "appinvite_service": {
          "other_platform_oauth_client": [
            {
              "client_id": "1019178046442-77kasvekln8p1c0u8uqha6lskg5m0vai.apps.googleusercontent.com",
              "client_type": 3
            }
          ]
        }
      }
    }
  ],
  "configuration_version": "1"
}